# 3ds Max Wavefront OBJ Exporter v0.97b - (c)2007 guruware
# File Created: 28.10.2016 11:16:59

newmtl lowPolyNecromancer_Default
	Ns 11.8100
	Ni 1.5000
	d 1.0000
	Tr 0.0000
	Tf 1.0000 1.0000 1.0000 
	illum 2
	Ka 0.0000 0.0000 0.0000
	Kd 0.6600 0.6600 0.6600
	Ks 0.0600 0.0600 0.0600
	Ke 0.0000 0.0000 0.0000
